2017-05-08 19:49:02 [main] INFO  by.aterekhov.epamcoffee.database.connectionpool.ConnectionPool - Connection pool idealization started.
2017-05-08 19:49:03 [main] INFO  by.aterekhov.epamcoffee.database.connectionpool.ConnectionPool - Connection com.mysql.jdbc.JDBC4Connection@76a4d6c added to connection pool.
2017-05-08 19:49:03 [main] INFO  by.aterekhov.epamcoffee.database.connectionpool.ConnectionPool - Connection com.mysql.jdbc.JDBC4Connection@32cf48b7 added to connection pool.
2017-05-08 19:49:03 [main] INFO  by.aterekhov.epamcoffee.database.connectionpool.ConnectionPool - Connection pool contains 2 connections.
2017-05-08 19:49:03 [main] INFO  by.aterekhov.epamcoffee.database.connectionpool.ConnectionPool - Connection pool idealization finished successfully.
2017-05-08 19:49:03 [main] INFO  by.aterekhov.epamcoffee.database.connectionpool.ConnectionPool - Connection (com.mysql.jdbc.JDBC4Connection@76a4d6c) was provided from pool.
2017-05-08 19:49:03 [main] INFO  by.aterekhov.epamcoffee.database.daoelement.DishTypeDAO - [DishType: Soup (Суп) [1], DishType: Salad (Салат) [2], DishType: Fixings (Гарнир) [3], DishType: Hot meal (Горячее) [4], DishType: Dessert (Десерт) [5]]
2017-05-08 19:49:03 [main] INFO  by.aterekhov.epamcoffee.database.connectionpool.ConnectionPool - Connection (com.mysql.jdbc.JDBC4Connection@76a4d6c) was returned to pool.
2017-05-08 19:49:03 [main] INFO  by.aterekhov.epamcoffee.shareapplicationobject.ShareMenu - Dish Types are built. Details: [DishType: Soup (Суп) [1], DishType: Salad (Салат) [2], DishType: Fixings (Гарнир) [3], DishType: Hot meal (Горячее) [4], DishType: Dessert (Десерт) [5]]
2017-05-08 19:49:03 [main] INFO  by.aterekhov.epamcoffee.database.connectionpool.ConnectionPool - Connection (com.mysql.jdbc.JDBC4Connection@32cf48b7) was provided from pool.
2017-05-08 19:49:03 [main] INFO  by.aterekhov.epamcoffee.database.daoelement.DishDAO - [Dish: Kharcho (Харчо) [ Soup] 250.0 g, Dish: Borsch (Борщ) [ Soup] 270.0 g, Dish: Chicken broth (Куриный бульон) [ Soup] 220.0 g, Dish: Sorrel soup (Зеленые Щи) [ Soup] 250.0 g, Dish: Pearl-barley soup with mushrooms (Перловый суп с грибами) [ Soup] 280.0 g, Dish: Pickle soup (Рассольник) [ Soup] 250.0 g, Dish: Greek salad (Греческий салат) [ Salad] 140.0 g, Dish: Russian salad (Оливье) [ Salad] 120.0 g, Dish: Vegetable cuts (Овощная нарезка) [ Salad] 180.0 g, Dish: Rice (Рис) [ Fixings] 135.0 g, Dish: Smother vegetable (Тушенные овощи) [ Fixings] 150.0 g, Dish: Chips (Картофель фри) [ Fixings] 120.0 g, Dish: Mash (Пюре) [ Fixings] 120.0 g, Dish: Barley groats (Перловка) [ Fixings] 110.0 g, Dish: Buckwheat (Гречка) [ Fixings] 115.0 g, Dish: Pork (Свинина) [ Hot meal] 105.0 g, Dish: Beef (Говядина) [ Hot meal] 90.0 g, Dish: Сhicken (Курица) [ Hot meal] 120.0 g, Dish: Fish (Рыба) [ Hot meal] 110.0 g, Dish: Cake "Palatine ruins" (Торт "Графские развалины") [ Dessert] 120.0 g, Dish: Cake "Napoleon" (Торт "Наполеон") [ Dessert] 150.0 g, Dish: Cake "Truffle" (Торт "Трюфель") [ Dessert] 100.0 g, Dish: Pasty (Пирог с яблоками) [ Dessert] 100.0 g, Dish: Сhocolate Nestle (Шоколад Nestle) [ Dessert] 90.0 g, Dish: Sweet bar Snikers (Батончик Snikers) [ Dessert] 50.0 g, Dish: Sweet bar Mars (Батончик Mars) [ Dessert] 50.0 g, Dish: Sweet bar KitKat (Батончик KitKat) [ Dessert] 50.0 g]
2017-05-08 19:49:03 [main] INFO  by.aterekhov.epamcoffee.database.connectionpool.ConnectionPool - Connection (com.mysql.jdbc.JDBC4Connection@32cf48b7) was returned to pool.
2017-05-08 19:49:03 [main] INFO  by.aterekhov.epamcoffee.shareapplicationobject.ShareMenu - Dishes are built. Details: [Dish: Kharcho (Харчо) [ Soup] 250.0 g, Dish: Borsch (Борщ) [ Soup] 270.0 g, Dish: Chicken broth (Куриный бульон) [ Soup] 220.0 g, Dish: Sorrel soup (Зеленые Щи) [ Soup] 250.0 g, Dish: Pearl-barley soup with mushrooms (Перловый суп с грибами) [ Soup] 280.0 g, Dish: Pickle soup (Рассольник) [ Soup] 250.0 g, Dish: Greek salad (Греческий салат) [ Salad] 140.0 g, Dish: Russian salad (Оливье) [ Salad] 120.0 g, Dish: Vegetable cuts (Овощная нарезка) [ Salad] 180.0 g, Dish: Rice (Рис) [ Fixings] 135.0 g, Dish: Smother vegetable (Тушенные овощи) [ Fixings] 150.0 g, Dish: Chips (Картофель фри) [ Fixings] 120.0 g, Dish: Mash (Пюре) [ Fixings] 120.0 g, Dish: Barley groats (Перловка) [ Fixings] 110.0 g, Dish: Buckwheat (Гречка) [ Fixings] 115.0 g, Dish: Pork (Свинина) [ Hot meal] 105.0 g, Dish: Beef (Говядина) [ Hot meal] 90.0 g, Dish: Сhicken (Курица) [ Hot meal] 120.0 g, Dish: Fish (Рыба) [ Hot meal] 110.0 g, Dish: Cake "Palatine ruins" (Торт "Графские развалины") [ Dessert] 120.0 g, Dish: Cake "Napoleon" (Торт "Наполеон") [ Dessert] 150.0 g, Dish: Cake "Truffle" (Торт "Трюфель") [ Dessert] 100.0 g, Dish: Pasty (Пирог с яблоками) [ Dessert] 100.0 g, Dish: Сhocolate Nestle (Шоколад Nestle) [ Dessert] 90.0 g, Dish: Sweet bar Snikers (Батончик Snikers) [ Dessert] 50.0 g, Dish: Sweet bar Mars (Батончик Mars) [ Dessert] 50.0 g, Dish: Sweet bar KitKat (Батончик KitKat) [ Dessert] 50.0 g]
2017-05-08 19:49:03 [main] INFO  by.aterekhov.epamcoffee.database.connectionpool.ConnectionPool - Connection (com.mysql.jdbc.JDBC4Connection@76a4d6c) was provided from pool.
2017-05-08 19:49:03 [main] INFO  by.aterekhov.epamcoffee.database.daoelement.MenuDAO - [Menu element on 2017-05-08 is Kharcho (1.51 BYN), Menu element on 2017-05-08 is Sorrel soup (1.22 BYN), Menu element on 2017-05-08 is Greek salad (1.17 BYN), Menu element on 2017-05-08 is Russian salad (1.6 BYN), Menu element on 2017-05-08 is Rice (0.62 BYN), Menu element on 2017-05-08 is Mash (1.1 BYN), Menu element on 2017-05-08 is Buckwheat (0.73 BYN), Menu element on 2017-05-08 is Pork (3.73 BYN), Menu element on 2017-05-08 is Сhicken (2.58 BYN), Menu element on 2017-05-08 is Fish (2.9 BYN), Menu element on 2017-05-08 is Cake "Palatine ruins" (2.95 BYN), Menu element on 2017-05-08 is Pasty (1.67 BYN), Menu element on 2017-05-08 is Сhocolate Nestle (1.46 BYN), Menu element on 2017-05-08 is Sweet bar Snikers (0.93 BYN), Menu element on 2017-05-08 is Sweet bar Mars (0.89 BYN), Menu element on 2017-05-08 is Sweet bar KitKat (0.76 BYN), Menu element on 2017-05-09 is Borsch (1.35 BYN), Menu element on 2017-05-09 is Pickle soup (1.3 BYN), Menu element on 2017-05-09 is Greek salad (1.1 BYN), Menu element on 2017-05-09 is Vegetable cuts (1.0 BYN), Menu element on 2017-05-09 is Smother vegetable (1.24 BYN), Menu element on 2017-05-09 is Barley groats (0.76 BYN), Menu element on 2017-05-09 is Buckwheat (0.55 BYN), Menu element on 2017-05-09 is Pork (3.85 BYN), Menu element on 2017-05-09 is Beef (4.11 BYN), Menu element on 2017-05-09 is Fish (2.98 BYN), Menu element on 2017-05-09 is Cake "Truffle" (2.75 BYN), Menu element on 2017-05-09 is Pasty (1.6 BYN), Menu element on 2017-05-09 is Сhocolate Nestle (1.46 BYN), Menu element on 2017-05-09 is Sweet bar Snikers (0.93 BYN), Menu element on 2017-05-09 is Sweet bar Mars (0.89 BYN), Menu element on 2017-05-09 is Sweet bar KitKat (0.76 BYN), Menu element on 2017-05-10 is Chicken broth (0.96 BYN), Menu element on 2017-05-10 is Pearl-barley soup with mushrooms (1.47 BYN), Menu element on 2017-05-10 is Greek salad (1.08 BYN), Menu element on 2017-05-10 is Vegetable cuts (0.9 BYN), Menu element on 2017-05-10 is Chips (1.8 BYN), Menu element on 2017-05-10 is Smother vegetable (1.25 BYN), Menu element on 2017-05-10 is Barley groats (0.82 BYN), Menu element on 2017-05-10 is Beef (4.14 BYN), Menu element on 2017-05-10 is Сhicken (3.72 BYN), Menu element on 2017-05-10 is Fish (3.13 BYN), Menu element on 2017-05-10 is Cake "Palatine ruins" (3.0 BYN), Menu element on 2017-05-10 is Cake "Napoleon" (3.4 BYN), Menu element on 2017-05-10 is Сhocolate Nestle (1.46 BYN), Menu element on 2017-05-10 is Sweet bar Snikers (0.93 BYN), Menu element on 2017-05-10 is Sweet bar Mars (0.89 BYN), Menu element on 2017-05-10 is Sweet bar KitKat (0.76 BYN), Menu element on 2017-05-11 is Kharcho (1.38 BYN), Menu element on 2017-05-11 is Chicken broth (0.88 BYN), Menu element on 2017-05-11 is Greek salad (1.13 BYN), Menu element on 2017-05-11 is Russian salad (1.72 BYN), Menu element on 2017-05-11 is Mash (1.45 BYN), Menu element on 2017-05-11 is Barley groats (0.7 BYN), Menu element on 2017-05-11 is Buckwheat (0.68 BYN), Menu element on 2017-05-11 is Pork (3.35 BYN), Menu element on 2017-05-11 is Beef (4.02 BYN), Menu element on 2017-05-11 is Сhicken (3.6 BYN), Menu element on 2017-05-11 is Cake "Napoleon" (3.0 BYN), Menu element on 2017-05-11 is Cake "Truffle" (3.25 BYN), Menu element on 2017-05-11 is Сhocolate Nestle (1.46 BYN), Menu element on 2017-05-11 is Sweet bar Snikers (0.93 BYN), Menu element on 2017-05-11 is Sweet bar Mars (0.89 BYN), Menu element on 2017-05-11 is Sweet bar KitKat (0.76 BYN), Menu element on 2017-05-12 is Borsch (1.4 BYN), Menu element on 2017-05-12 is Pickle soup (1.58 BYN), Menu element on 2017-05-12 is Greek salad (1.1 BYN), Menu element on 2017-05-12 is Russian salad (1.83 BYN), Menu element on 2017-05-12 is Rice (1.24 BYN), Menu element on 2017-05-12 is Mash (1.68 BYN), Menu element on 2017-05-12 is Barley groats (0.55 BYN), Menu element on 2017-05-12 is Pork (3.2 BYN), Menu element on 2017-05-12 is Beef (3.71 BYN), Menu element on 2017-05-12 is Fish (3.85 BYN), Menu element on 2017-05-12 is Cake "Palatine ruins" (2.2 BYN), Menu element on 2017-05-12 is Cake "Truffle" (3.37 BYN), Menu element on 2017-05-12 is Сhocolate Nestle (1.46 BYN), Menu element on 2017-05-12 is Sweet bar Snikers (0.93 BYN), Menu element on 2017-05-12 is Sweet bar Mars (0.89 BYN), Menu element on 2017-05-12 is Sweet bar KitKat (0.76 BYN)]
2017-05-08 19:49:03 [main] INFO  by.aterekhov.epamcoffee.shareapplicationobject.ShareMenu - Week mune is built. Details: [Menu element on 2017-05-08 is Kharcho (1.51 BYN), Menu element on 2017-05-08 is Sorrel soup (1.22 BYN), Menu element on 2017-05-08 is Greek salad (1.17 BYN), Menu element on 2017-05-08 is Russian salad (1.6 BYN), Menu element on 2017-05-08 is Rice (0.62 BYN), Menu element on 2017-05-08 is Mash (1.1 BYN), Menu element on 2017-05-08 is Buckwheat (0.73 BYN), Menu element on 2017-05-08 is Pork (3.73 BYN), Menu element on 2017-05-08 is Сhicken (2.58 BYN), Menu element on 2017-05-08 is Fish (2.9 BYN), Menu element on 2017-05-08 is Cake "Palatine ruins" (2.95 BYN), Menu element on 2017-05-08 is Pasty (1.67 BYN), Menu element on 2017-05-08 is Сhocolate Nestle (1.46 BYN), Menu element on 2017-05-08 is Sweet bar Snikers (0.93 BYN), Menu element on 2017-05-08 is Sweet bar Mars (0.89 BYN), Menu element on 2017-05-08 is Sweet bar KitKat (0.76 BYN), Menu element on 2017-05-09 is Borsch (1.35 BYN), Menu element on 2017-05-09 is Pickle soup (1.3 BYN), Menu element on 2017-05-09 is Greek salad (1.1 BYN), Menu element on 2017-05-09 is Vegetable cuts (1.0 BYN), Menu element on 2017-05-09 is Smother vegetable (1.24 BYN), Menu element on 2017-05-09 is Barley groats (0.76 BYN), Menu element on 2017-05-09 is Buckwheat (0.55 BYN), Menu element on 2017-05-09 is Pork (3.85 BYN), Menu element on 2017-05-09 is Beef (4.11 BYN), Menu element on 2017-05-09 is Fish (2.98 BYN), Menu element on 2017-05-09 is Cake "Truffle" (2.75 BYN), Menu element on 2017-05-09 is Pasty (1.6 BYN), Menu element on 2017-05-09 is Сhocolate Nestle (1.46 BYN), Menu element on 2017-05-09 is Sweet bar Snikers (0.93 BYN), Menu element on 2017-05-09 is Sweet bar Mars (0.89 BYN), Menu element on 2017-05-09 is Sweet bar KitKat (0.76 BYN), Menu element on 2017-05-10 is Chicken broth (0.96 BYN), Menu element on 2017-05-10 is Pearl-barley soup with mushrooms (1.47 BYN), Menu element on 2017-05-10 is Greek salad (1.08 BYN), Menu element on 2017-05-10 is Vegetable cuts (0.9 BYN), Menu element on 2017-05-10 is Chips (1.8 BYN), Menu element on 2017-05-10 is Smother vegetable (1.25 BYN), Menu element on 2017-05-10 is Barley groats (0.82 BYN), Menu element on 2017-05-10 is Beef (4.14 BYN), Menu element on 2017-05-10 is Сhicken (3.72 BYN), Menu element on 2017-05-10 is Fish (3.13 BYN), Menu element on 2017-05-10 is Cake "Palatine ruins" (3.0 BYN), Menu element on 2017-05-10 is Cake "Napoleon" (3.4 BYN), Menu element on 2017-05-10 is Сhocolate Nestle (1.46 BYN), Menu element on 2017-05-10 is Sweet bar Snikers (0.93 BYN), Menu element on 2017-05-10 is Sweet bar Mars (0.89 BYN), Menu element on 2017-05-10 is Sweet bar KitKat (0.76 BYN), Menu element on 2017-05-11 is Kharcho (1.38 BYN), Menu element on 2017-05-11 is Chicken broth (0.88 BYN), Menu element on 2017-05-11 is Greek salad (1.13 BYN), Menu element on 2017-05-11 is Russian salad (1.72 BYN), Menu element on 2017-05-11 is Mash (1.45 BYN), Menu element on 2017-05-11 is Barley groats (0.7 BYN), Menu element on 2017-05-11 is Buckwheat (0.68 BYN), Menu element on 2017-05-11 is Pork (3.35 BYN), Menu element on 2017-05-11 is Beef (4.02 BYN), Menu element on 2017-05-11 is Сhicken (3.6 BYN), Menu element on 2017-05-11 is Cake "Napoleon" (3.0 BYN), Menu element on 2017-05-11 is Cake "Truffle" (3.25 BYN), Menu element on 2017-05-11 is Сhocolate Nestle (1.46 BYN), Menu element on 2017-05-11 is Sweet bar Snikers (0.93 BYN), Menu element on 2017-05-11 is Sweet bar Mars (0.89 BYN), Menu element on 2017-05-11 is Sweet bar KitKat (0.76 BYN), Menu element on 2017-05-12 is Borsch (1.4 BYN), Menu element on 2017-05-12 is Pickle soup (1.58 BYN), Menu element on 2017-05-12 is Greek salad (1.1 BYN), Menu element on 2017-05-12 is Russian salad (1.83 BYN), Menu element on 2017-05-12 is Rice (1.24 BYN), Menu element on 2017-05-12 is Mash (1.68 BYN), Menu element on 2017-05-12 is Barley groats (0.55 BYN), Menu element on 2017-05-12 is Pork (3.2 BYN), Menu element on 2017-05-12 is Beef (3.71 BYN), Menu element on 2017-05-12 is Fish (3.85 BYN), Menu element on 2017-05-12 is Cake "Palatine ruins" (2.2 BYN), Menu element on 2017-05-12 is Cake "Truffle" (3.37 BYN), Menu element on 2017-05-12 is Сhocolate Nestle (1.46 BYN), Menu element on 2017-05-12 is Sweet bar Snikers (0.93 BYN), Menu element on 2017-05-12 is Sweet bar Mars (0.89 BYN), Menu element on 2017-05-12 is Sweet bar KitKat (0.76 BYN)]
