2017-02-26 13:04:45 [main] INFO  by.aterekhov.railway.train.Train - Train object was created. Train name: ' '
2017-02-26 13:04:45 [main] INFO  by.aterekhov.railway.train.Train - Train object was created. Train name: 'Some train!'
2017-02-26 13:04:45 [main] INFO  by.aterekhov.railway.train.Train - Train object was created. Train name: '123123'
2017-02-26 13:04:45 [main] INFO  by.aterekhov.railway.train.Train - Train object was created. Train name: '   '
