2017-02-22 00:02:19 [main] INFO  by.aterekhov.railway.train.Train - Train object was created. Train name: ' '
2017-02-22 00:02:19 [main] INFO  by.aterekhov.railway.train.Train - Train object was created. Train name: 'Some train!'
2017-02-22 00:02:19 [main] INFO  by.aterekhov.railway.train.Train - Train object was created. Train name: '123123'
2017-02-22 00:02:19 [main] INFO  by.aterekhov.railway.train.Train - Train object was created. Train name: '   '
2017-02-22 00:02:44 [main] INFO  by.aterekhov.railway.train.Train - Train object was created. Train name: ' '
2017-02-22 00:02:44 [main] INFO  by.aterekhov.railway.train.Train - Train object was created. Train name: 'Some train!'
2017-02-22 00:02:44 [main] INFO  by.aterekhov.railway.train.Train - Train object was created. Train name: '123123'
2017-02-22 00:02:44 [main] INFO  by.aterekhov.railway.train.Train - Train object was created. Train name: '   '
2017-02-22 00:02:54 [main] INFO  by.aterekhov.railway.train.Train - Train object was created. Train name: ' '
2017-02-22 00:02:54 [main] INFO  by.aterekhov.railway.train.Train - Train object was created. Train name: 'Some train!'
2017-02-22 00:02:54 [main] INFO  by.aterekhov.railway.train.Train - Train object was created. Train name: '123123'
2017-02-22 00:02:54 [main] INFO  by.aterekhov.railway.train.Train - Train object was created. Train name: '   '
